<svg xmlns="http://www.w3.org/2000/svg" width="12" height="9" viewBox="0 0 12 9">
    <path fill="#FFF" fill-rule="evenodd" d="M4.252 8.66c.195.195.512.195.707 0l6.673-6.673c.195-.195.195-.511 0-.707l-.707-.707c-.196-.195-.512-.195-.708 0l-5.61 5.613-2.824-2.824c-.196-.195-.512-.195-.708 0l-.707.707c-.195.195-.195.512 0 .707L4.252 8.66z"/>
</svg>
