<svg xmlns="http://www.w3.org/2000/svg" width="17" height="17" viewBox="0 0 17 17">
    <path fill="#857667" fill-rule="evenodd" d="M9 1.014c.552 0 1 .448 1 1V7.03h5.017c.553 0 1 .448 1 1v1c0 .513-.386.936-.883.994l-.117.006H10v5.018c0 .552-.448 1-1 1H8c-.513 0-.936-.386-.993-.884L7 15.05V10.03H1.983c-.553 0-1-.447-1-1v-1c0-.552.447-1 1-1H7V2.014c0-.552.448-1 1-1h1z"/>
</svg>
