<?xml version="1.0" encoding="UTF-8"?>
<!DOCTYPE svg PUBLIC "-//W3C//DTD SVG 1.1//EN" "http://www.w3.org/Graphics/SVG/1.1/DTD/svg11.dtd">
<!-- Creator: CorelDRAW 2018 (64-Bit) -->
<svg xmlns="http://www.w3.org/2000/svg" xml:space="preserve" width="420mm" height="297mm" version="1.1" style="shape-rendering:geometricPrecision; text-rendering:geometricPrecision; image-rendering:optimizeQuality; fill-rule:evenodd; clip-rule:evenodd"
viewBox="0 0 42000 29700"
 xmlns:xlink="http://www.w3.org/1999/xlink">
 <defs>
  <style type="text/css">
   <![CDATA[
    .fil0 {fill:#fff}
    .fil4 {fill:#304781}
    .fil5 {fill:#43B858}
    .fil6 {fill:#45C9F6}
    .fil3 {fill:#487CBF}
    .fil7 {fill:#8F57A3}
    .fil2 {fill:#F24840}
    .fil1 {fill:#FED32F}
    .fil8 {fill:#FFE588}
   ]]>
  </style>
 </defs>
 <g id="Слой_x0020_1">
  <metadata id="CorelCorpID_0Corel-Layer"/>
  <g id="_1777091822192">
   <path class="fil0" d="M20774.51 13883.52l-462.5 -6.48 10.2 2411.33 476.16 0.47 3.09 -1126.4 303.65 719.04 371.68 5.87 285.88 -699.43 18.15 1101.76 508.68 0.93 2.93 -2435.12 -480.64 1.47c-92.98,206.27 -449.06,1177.21 -528.14,1252.89l-509.14 -1226.33zm-5.95 5373.51c141.17,-251.28 531.08,-1007 676.8,-1250.1l4.71 1249.26 494.31 -0.7 1.39 -2383.92 -457.24 14.75 -686.37 1337.84 -5.8 -1354.52 -488.59 0.7 0 2383.45 460.79 3.24zm950.56 1545.65c-234.38,-4.09 -687.84,-3.55 -897.81,-3.55l-0.08 -499.95c155.69,0 702.43,0.85 901.21,0.85l0.46 -465.82 -1403.86 1.78c0,188.5 -19.54,2079.88 -19.54,2431.41 200.25,0 1320.08,0.62 1422.01,0.62l1.39 -481.34 -901.21 -1.47 1.86 -506.44 896.03 0.54 -0.46 -476.63zm11854.03 1031.49c-327.35,-37.07 -233.21,-779.27 12.59,-776.88 217.16,2.01 253.22,806.84 -12.59,776.88zm-195.14 -1123.77c56.22,-376.47 478.09,-514.39 807.92,-601.58 -52.28,-119.7 -114.91,-265.42 -164.41,-375.16 -499.33,143.56 -946.77,283.57 -1066.32,837.43 -81.78,378.55 -149.58,1385.33 201.02,1628.89 185.18,128.58 589.53,126.19 785.45,19.23 224.8,-122.71 302.95,-367.43 325.27,-612.62 14.13,-887.7 -280.1,-986.62 -888.93,-896.19zm3303.81 276.69c322.8,22.09 236.39,878.9 2.09,858.66 -285.96,-24.63 -267.27,-873.02 -2.09,-858.66zm-199.85 -337.47l-3.17 -110.58 -480.18 0.69 2.86 2434.5 491.45 -6.48 4.95 -798.5c206.03,81.39 418.24,55.98 579.72,-36.14 161.48,-92.21 252.83,-407.13 277.08,-660.89 4.33,-1016.2 -575.86,-1034.42 -872.71,-822.6zm-9179.83 -1819.02c-271.91,-5.33 -316.62,-857.65 12.12,-856.96 270.44,0.46 292.69,852.71 -12.12,856.96zm-644.36 1122.46l467.21 0 2.24 -792.79c0,0 18.22,4.64 63.48,35.68 176.22,121.24 491.14,104.79 631.92,-65.25 235.15,-283.57 266.66,-1182.08 6.64,-1457.93 -194.6,-206.42 -485.58,-141.7 -708.99,7.96l3.7 -121.17 -465.74 -0.69 -0.46 2394.19zm2070.77 1869.45c-339.17,-25.18 -218.85,-786.15 -85.87,-831.63 280.25,-95.84 360.87,675.17 85.87,831.63zm-208.27 -1264.09l-485.82 1.86 0.23 2373.49 497.33 0.15 0.61 -765.6c424.12,325.27 832.48,-31.82 857.04,-506.13 14.37,-276.39 19.39,-420.72 -52.43,-719.27 -83.79,-348.9 -512.62,-532.31 -816.5,-294.38l-0.46 -90.12zm2400.21 -2088.84l-0.15 804.14 484.2 0.38 0.61 -1728.2 -447.74 1.69 -529.53 880.75 -8.03 -885.61 -477.79 3.63c-1.01,218.08 -1.7,1415.68 -0.16,1725.73l418.95 1.55c196.92,-283.88 465.04,-664.52 559.64,-804.06zm-1703.72 -66.03l0.38 874.18 464.04 -3.86 -6.79 -1729.98 -430.68 2.93 -523.28 863.99 -5.25 -864.99 -477.71 1.62 -0.15 1726.89 447.98 0.31 531.46 -871.09zm863.98 2152.17l-464.42 -0.85 0 1719.71 439.87 0c69.58,-110.51 449.21,-709.61 511.3,-807.07l1.16 805.68 474.93 -4.56 2.24 -1731.29 -434.24 1 -530.53 880.29 -0.31 -862.91zm-2497.9 -5979.96l-459.02 0.55 8.26 1713.14 429.06 -1.16 495.4 -814.4 12.04 814.87 479.1 -2.47 0.62 -1707.75 -420.95 -4.01 -526.9 859.66 -17.61 -858.43zm-3271.07 6993.68c81.47,411.84 -420.8,317.24 -379.48,113.99 34.59,-169.59 246.96,-113.99 379.48,-113.99zm-815.34 -691.93l335.7 210.59c119.54,-78.53 126.64,-139.69 314.14,-130.58 178.55,8.65 177.7,110.66 179.55,259.63 -443.27,0 -899.82,9.42 -867.23,600.11 26.49,478.4 537.41,618.64 855.42,326.27l11.73 129.04 493.08 2.01c0,-390.68 12.59,-917.35 -2.24,-1291.58 -39.84,-460.95 -492.23,-524.28 -807.61,-464.81 -206.11,38.92 -444.74,144.87 -512.54,359.32zm16269.34 709.46c189.82,163.95 -99,474.86 -306.19,308.98 -252.6,-202.02 57.84,-523.66 306.19,-308.98zm-496.16 683.52c249.2,59.92 335.85,-7.18 527.21,-125.88l5.02 130.13 494.54 -0.7c0,-349.75 91.67,-1348.57 -135.76,-1582.33 -273.06,-280.56 -1029.48,-235.77 -1185.47,178.7 92.9,86.95 229.59,174.06 348.2,211.44 169.51,-156.69 468.99,-239.71 478.49,126.26 -1223.55,150.13 -830.94,956.58 -532.23,1062.38zm-16579.17 -6991.36c103.87,323.72 512.38,1024.45 120.08,1260.14 -90.81,65.18 -66.26,28.65 -157.69,63.33l-4.71 363.57 270.36 -3.55c428.83,2.39 531.77,-722.28 644.06,-1059.68 134.67,-404.73 313.22,-906.53 419.94,-1326.25l-525.05 -2.86 -233.83 987.55 -237.93 -985.54 -513.16 2.24c-8.34,163.72 217.93,701.05 217.93,701.05zm11685.68 5476.75l51.13 157.62c65.64,268.74 187.34,573.31 269.05,834.1 80.93,258.16 249.59,831.17 -190.05,842.29l0 350.37 333.92 -10.82c357.85,-11.73 498.17,-808.23 593.77,-1105.62 72.52,-225.57 380.72,-1123.61 388.6,-1284.94l-497.02 -0.92 -265.73 1010.87c-33.51,-147.12 -282.72,-1011.03 -271.21,-1010.41 -126.26,0 -338.63,0.23 -482.42,0.23l69.96 217.23zm-8536.93 -1923.19c-197.15,141.86 -272.76,-190.05 -271.91,-426.82 0.54,-195.92 -0.69,-479.34 248.82,-415.24 157.07,40.31 201.86,713.32 23.09,842.06zm-760.66 -175.38c54.67,520.03 388.36,782.44 915.57,637.02 483.58,-133.44 457.56,-734.55 423.04,-1147.17 -43.4,-516.47 -419.64,-737.26 -910.63,-591.38 -462.58,137.54 -471.69,684.75 -427.98,1101.53zm935.19 -3438.81c24.32,-148.27 67.11,-223.25 133.75,-241.09 160.01,-42.94 206.34,64.79 222.64,241.17l-356.39 -0.08zm838.96 680.43c-157.46,-72.82 -280.48,-129.12 -426.51,-195.22 -118.61,205.95 -435.85,242.25 -406.35,-154.3l871.24 -7.18c20.47,-384.89 -30.5,-886.31 -468.36,-987.86 -453.08,-105.1 -800.05,80.63 -887.08,539.65 -293.38,1546.34 1169.49,1388.65 1317.06,804.91zm-3648.93 5813.46c-62.63,-232.76 -136.84,-262.18 -236.15,-356.55 246.27,-108.73 266.27,-522.04 345.35,-769.31 -146.96,0 -372.15,0.7 -486.67,0.7 -28.5,252.21 -84.49,656.1 -410.76,626.06l-0.77 -626.3 -490.84 -3.32 -4.79 1683.65 496.25 -0.23 -0.93 -672.39c316.77,2.47 337.7,138.15 436.78,673.7l504.04 -0.85c-44.79,-175.6 -100.23,-397.08 -151.51,-555.16zm4082.32 -504.9l-352.3 2.01c7.18,-301.02 296.23,-407.98 352.3,-2.01zm-365.12 285.89c67.73,0.38 227.66,5.4 404.58,8.11 155.37,0 310.67,0 466.05,0 -20.08,-525.21 -7.57,-1033.27 -751.09,-981.37 -452.07,31.51 -585.36,339.94 -614.32,751.32 -101.78,1445.1 1235.83,1078.51 1334.91,625.36l-349.83 -202.17c-18.46,118.69 -460.34,338.16 -490.3,-201.25zm4359.48 770.39l493.54 8.8 -1.55 -700.19 425.59 0.31 0.46 695.4 452.07 -0.07 0 -1731.61 -452.76 0.23c0.46,94.3 -0.39,673.02 -0.39,673.02l-423.65 -1.55c0,-89.27 -2.48,-516.86 -3.87,-669.53l-489.44 -14.37 0 1739.56zm-6791.66 -7011.91c0,134.61 -15.99,191.29 30.42,318.94 694.4,-2.47 105.26,581.81 -108.81,170.51l-380.71 188.59c152.67,507.21 1171.34,511.53 1287.02,-23.63 61.08,-282.8 -17.22,-355.01 -190.2,-509.45 138.23,-150.52 224.49,-199.4 188.19,-453.08 -81.01,-565.36 -1077.82,-520.26 -1226.4,-62.71l311.6 207.43c146.96,-86.26 327.2,-200.63 405.89,-64.18 91.82,159.09 -124.95,227.58 -317,227.58zm-2250.17 2782.94c-49.5,261.41 -39.08,508.76 -0.39,771.78 101.94,693.56 1168.18,586.37 1236.6,92.75 -131.9,-67.57 -314.92,-161.71 -406.36,-192.52 -103.09,128.81 -153.29,196.92 -272.14,124.56 -250.2,-152.21 -192.05,-1041.52 215.61,-781.89l114.14 103.09c118.93,-79.54 228.51,-158.46 330.99,-223.33 -329.21,-608.99 -1103.77,-500.49 -1218.45,105.56zm15820.59 2939.86l744.6 -2.39 -6.49 -432.23 -1217.91 2.63 -1.08 1731.22 481.03 -8.11 -0.15 -1291.12zm-13083.06 -35.52l412.38 0.23c-0.7,191.29 0.46,1074.27 0.46,1332.2l475.01 2.32 1.62 -1334.98 416.47 0.69 -0.08 -387.67 -1305.63 0 -0.23 387.21zm-1315.91 -2985.65l372.84 -0.31 1.39 1326.1 480.88 -6.26 6.02 -1319.84c100.47,0 274.85,0.38 397.32,1.23l1.47 -382.95 -1260.77 0 0.85 382.03zm4737.8 -4138.62l-356.77 3.48c-70.28,190.59 -154.69,252.98 -261.64,225.03 -106.96,-27.96 -166.57,-209.05 -170.51,-225.96l-348.36 -2.01c75.14,796.88 1067.63,786.22 1137.28,-0.54z"/>
   <path class="fil1" d="M10257.48 22265.67l3592 0 0 -4745.61 -1210.13 10.7c-142.23,108.85 -471.48,491.81 -582,536.13l-11.49 -564.25 -2985 1.67 -0.48 4782.4 600.57 -6.6 590.67 -568.22 5.86 553.78z"/>
   <path class="fil2" d="M16704.71 19895.46l2390.54 -11.18c47.75,-918.15 -610.05,-1824.08 -1412.43,-2173.44 -914.77,-398.36 -2011.82,-205.96 -2692.42,500.74 -1684.58,1749.12 -5.06,4245.21 1709.15,4067.6l5.16 -2383.72z"/>
   <path class="fil3" d="M3804.97 22284.82l4773.72 2.69 -7.17 -4771.22c-370.75,370.75 -1951.29,1895.08 -2421,2379.75 -763.89,804.5 -1570.48,1590.07 -2345.55,2388.78z"/>
   <path class="fil2" d="M14343.88 11756.83c23.76,35.87 4301.07,16.59 4732.92,16.59l3.08 -4859.87c0,0 -3088.92,3182.01 -3562.5,3657.84 -175.15,175.85 -1131.16,1061.44 -1173.5,1185.44z"/>
   <path class="fil4" d="M3804.97 22284.82c118.37,-121.54 1063.68,-1078.73 1175.96,-1191.2 392.82,-389.11 785.1,-798.17 1169.59,-1197.58l-8.58 -2333.54c-908.78,907.81 -4399.89,4411.07 -4736.32,4725.14l2399.35 -2.82z"/>
   <path class="fil1" d="M17351.32 12229.84c-882.29,84.42 -1513.98,838.93 -1446.41,1733.01 67.35,889.01 890.65,1536.21 1771.31,1439.59 867.4,-95.34 1505.66,-873.71 1415.41,-1745.82 -90.53,-874.89 -855.74,-1511.39 -1740.31,-1426.78z"/>
   <path class="fil5" d="M13877.34 17040.68l5196.77 13.55c-103.09,-103.09 -994.82,-1031.72 -1163.95,-1196.17 -5.54,-2.24 -3860.72,13.64 -4034.45,13.64l1.63 1168.98z"/>
   <path class="fil0" d="M13872.16 13061.4c0.48,80.81 -0.83,2082.06 -0.83,2340.81l2210.84 0c0,0 -1833.75,-1968.3 -2210.01,-2340.81z"/>
   <path class="fil0" d="M9059.81 17033.28l2341.29 0 0 -2264.87c-0.36,-69.02 4.58,-88.87 -28.44,-53.39 -310.9,307.86 -2312.85,2318.26 -2312.85,2318.26z"/>
   <path class="fil6" d="M14934.46 12245.37c-782.5,206.76 -474.07,1348.96 298.66,1163.83 750.19,-179.86 484.41,-1370.96 -298.66,-1163.83z"/>
   <path class="fil2" d="M18472.39 21271.58c237.92,-755.12 -888.44,-1110.47 -1142.91,-376.26 -264.36,762.51 906.06,1127.85 1142.91,376.26z"/>
   <polygon class="fil7" points="12125.1,15846.76 13287.44,14663.43 12125.24,14664.06 "/>
   <path class="fil8" d="M10257.48 22265.67c104.28,80.64 711.76,31.03 889.5,31.03 669.19,0 2225.87,36.89 2707.69,-6.12 36.67,-119.06 46.08,-4616.06 3.52,-4792.61l-935.81 -6.73c-210.14,-0.7 -242.94,-30.42 -283.03,39.52l1210.13 -10.7 0 4745.61 -3592 0z"/>
   <polygon class="fil7" points="12125.1,17030.2 13287.44,15846.88 12125.24,15847.51 "/>
  </g>
 </g>
</svg>
